<svg xmlns="http://www.w3.org/2000/svg" xmlns:xlink="http://www.w3.org/1999/xlink" width="200px" height="200px" viewBox="0 0 24 24" version="1.1" class="kt-svg-icon">
    <g stroke="none" stroke-width="1" fill="none" fill-rule="evenodd">
        <rect id="bound" x="0" y="0" width="24" height="24"/>
        <circle id="Oval-5" fill="#000000" opacity="0.3" cx="12" cy="12" r="10"/>
        <rect id="Rectangle-9" fill="red" x="11" y="7" width="2" height="8" rx="1"/>
        <rect id="Rectangle-9-Copy" fill="red" x="11" y="16" width="2" height="2" rx="1"/>
    </g>
</svg>